CorrGan
…
## v ggplot2 3.3.2     v purrr   0.3.4
## v tibble  3.0.3     v dplyr   1.0.1
## v tidyr   1.1.0     v stringr 1.4.0
## v readr   1.3.1     v forcats 0.5.0

## -- Conflicts --------------------------------------- tidyverse_conflicts() --
## x dplyr::filter() masks stats::filter()
## x dplyr::lag()    masks stats::lag()

names(py$nearest_corrmats) <- glue::glue("CorMat_{1:length(py$nearest_corrmats)}")
nearest_corrmats <- py$nearest_corrmats %>% as_tibble()
nearest_corrmats

## # A tibble: 80 x 4
##    CorMat_1[,1]  [,2]  [,3]  [,4]  [,5]  [,6]  [,7]  [,8]  [,9] [,10] [,11]
##           <dbl> <dbl> <dbl> <dbl> <dbl> <dbl> <dbl> <dbl> <dbl> <dbl> <dbl>
##  1        1     0.768 0.675 0.693 0.503 0.479 0.442 0.429 0.370 0.317 0.237
##  2        0.768 1     0.754 0.695 0.454 0.380 0.424 0.381 0.379 0.364 0.182
##  3        0.675 0.754 1     0.748 0.447 0.394 0.415 0.296 0.325 0.378 0.253
##  4        0.693 0.695 0.748 1     0.531 0.531 0.439 0.464 0.285 0.280 0.191
##  5        0.503 0.454 0.447 0.531 1     0.631 0.565 0.442 0.421 0.392 0.272
##  6        0.479 0.380 0.394 0.531 0.631 1     0.593 0.495 0.239 0.245 0.119
##  7        0.442 0.424 0.415 0.439 0.565 0.593 1     0.723 0.483 0.415 0.255
##  8        0.429 0.381 0.296 0.464 0.442 0.495 0.723 1     0.324 0.412 0.299
##  9        0.370 0.379 0.325 0.285 0.421 0.239 0.483 0.324 1     0.654 0.561
## 10        0.317 0.364 0.378 0.280 0.392 0.245 0.415 0.412 0.654 1     0.565
## # ... with 70 more rows, and 309 more variables: [,12] <dbl>, [,13] <dbl>,
## #   [,14] <dbl>, [,15] <dbl>, [,16] <dbl>, [,17] <dbl>, [,18] <dbl>,
## #   [,19] <dbl>, [,20] <dbl>, [,21] <dbl>, [,22] <dbl>, [,23] <dbl>,
## #   [,24] <dbl>, [,25] <dbl>, [,26] <dbl>, [,27] <dbl>, [,28] <dbl>,
## #   [,29] <dbl>, [,30] <dbl>, [,31] <dbl>, [,32] <dbl>, [,33] <dbl>,
## #   [,34] <dbl>, [,35] <dbl>, [,36] <dbl>, [,37] <dbl>, [,38] <dbl>,
## #   [,39] <dbl>, [,40] <dbl>, [,41] <dbl>, [,42] <dbl>, [,43] <dbl>,
## #   [,44] <dbl>, [,45] <dbl>, [,46] <dbl>, [,47] <dbl>, [,48] <dbl>,
## #   [,49] <dbl>, [,50] <dbl>, [,51] <dbl>, [,52] <dbl>, [,53] <dbl>,
…
