MCmarkete: An R package for the Monte Carlo Simulation of Financial Markets
…
R> corr <- gen_corr(D = 20, Clusters = "non-overlapping", Num_Clusters = 4)
R> 
R> # Simulating markets
R> mc_market(corr, 
R+           N = 20, # Number of ensembles/counterfactuals
R+           k = 500, # Number of periods
R+           mv_dist = "t", # Student-t copula chosen for the part of the 
R+                          # multivariate distribution that adheres to the correlation structure. 
R+           mv_df = 3, # Degrees of freedom for student-t copula
R+           left_cop_weight = 0.25, # weight
R+           left_cop_param = 5,
R+           ts_model = list()
R+           )

# A tibble: 200,000 x 4
   date       Asset   Universe     Return
   <date>     <chr>   <chr>         <dbl>
 1 2020-12-21 Asset_1 Universe_1 -0.0191 
 2 2020-12-22 Asset_1 Universe_1  0.0359 
 3 2020-12-23 Asset_1 Universe_1 -0.0119 
 4 2020-12-24 Asset_1 Universe_1 -0.00427
 5 2020-12-25 Asset_1 Universe_1  0.0130 
 6 2020-12-26 Asset_1 Universe_1 -0.0192 
 7 2020-12-27 Asset_1 Universe_1 -0.0244 
 8 2020-12-28 Asset_1 Universe_1 -0.00609
 9 2020-12-29 Asset_1 Universe_1  0.0175 
10 2020-12-30 Asset_1 Universe_1  0.0113 
# ... with 199,990 more rows
…
