…
p3 <- fitHeavyTail::fit_mvt(rt) %>% .$cov %>% cov2cor() %>% 
  ggcorrplot::ggcorrplot(hc.order = TRUE) + 
  labs(subtitle = "T-Copula") +
  scale_x_discrete(labels = NULL) + scale_y_discrete(labels = NULL) +
  theme(legend.position = "none")

rn %>% as_tibble()
```

    ## # A tibble: 252 x 50
    ##        V1    V2    V3    V4     V5    V6     V7     V8    V9   V10   V11   V12
    ##     <dbl> <dbl> <dbl> <dbl>  <dbl> <dbl>  <dbl>  <dbl> <dbl> <dbl> <dbl> <dbl>
    ##  1 0.542  0.584 0.781 0.620 0.627  0.743 0.601  0.386  0.457 0.487 0.837 0.761
    ##  2 0.763  0.734 0.733 0.857 0.713  0.853 0.532  0.775  0.729 0.739 0.508 0.397
    ##  3 0.0967 0.160 0.124 0.118 0.0843 0.139 0.0937 0.0551 0.117 0.218 0.158 0.264
    ##  4 0.724  0.722 0.674 0.511 0.621  0.587 0.687  0.576  0.732 0.576 0.859 0.659
    ##  5 0.957  0.925 0.826 0.884 0.814  0.633 0.595  0.618  0.844 0.682 0.389 0.404
    ##  6 0.544  0.521 0.548 0.602 0.769  0.555 0.695  0.643  0.552 0.375 0.747 0.750
    ##  7 0.124  0.122 0.110 0.104 0.143  0.505 0.233  0.490  0.617 0.710 0.707 0.646
    ##  8 0.396  0.112 0.236 0.292 0.193  0.484 0.494  0.438  0.178 0.748 0.743 0.822
    ##  9 0.239  0.146 0.188 0.244 0.318  0.105 0.200  0.311  0.183 0.255 0.504 0.475
    ## 10 0.951  0.937 0.910 0.923 0.932  0.269 0.718  0.529  0.618 0.553 0.861 0.757
    ## # ... with 242 more rows, and 38 more variables: V13 <dbl>, V14 <dbl>,
    ## #   V15 <dbl>, V16 <dbl>, V17 <dbl>, V18 <dbl>, V19 <dbl>, V20 <dbl>,
    ## #   V21 <dbl>, V22 <dbl>, V23 <dbl>, V24 <dbl>, V25 <dbl>, V26 <dbl>,
    ## #   V27 <dbl>, V28 <dbl>, V29 <dbl>, V30 <dbl>, V31 <dbl>, V32 <dbl>,
    ## #   V33 <dbl>, V34 <dbl>, V35 <dbl>, V36 <dbl>, V37 <dbl>, V38 <dbl>,
    ## #   V39 <dbl>, V40 <dbl>, V41 <dbl>, V42 <dbl>, V43 <dbl>, V44 <dbl>,
    ## #   V45 <dbl>, V46 <dbl>, V47 <dbl>, V48 <dbl>, V49 <dbl>, V50 <dbl>
…
